{
  "status": "ok",
  "source": "the-washington-post",
  "sortBy": "top",
  "articles": [
    {
      "author": null,
      "title": "Failure",
      "description": "Dog could not find your news...",
      "url": "/",
      "urlToImage": "/images/doggy.png",
      "publishedAt": "2019-09-24T01:14:47Z"
    }
  ]
}
